id,minasw,name
1,16,睦月
2,16,如月
6,16,長月
7,16,三日月
9,20,吹雪
10,20,白雪
11,20,深雪
12,20,磯波
13,20,綾波
14,20,敷波
15,20,曙
16,20,潮
17,24,陽炎
18,24,不知火
19,24,黒潮
20,24,雪風
21,20,長良
22,40,五十鈴
23,40,由良
24,19,大井
25,19,北上
28,16,皐月
29,16,文月
30,16,菊月
31,16,望月
32,20,初雪
33,20,叢雲
34,20,暁
35,20,響
36,20,雷
37,20,電
38,21,初春
39,21,子日
40,21,若葉
41,21,初霜
42,21,白露
43,21,時雨
44,21,村雨
45,21,夕立
46,21,五月雨
47,21,涼風
48,21,霰
49,21,霞
50,24,島風
51,18,天龍
52,18,龍田
53,20,名取
54,20,川内
55,20,神通
56,24,那珂
57,25,大井改
58,25,北上改
93,20,朧
94,20,漣
95,21,朝潮
96,21,大潮
97,21,満潮
98,21,荒潮
99,19,球磨
100,19,多摩
101,19,木曾
113,20,鬼怒
114,20,阿武隈
115,13,夕張
118,27,大井改二
119,27,北上改二
122,24,舞風
132,24,秋雲
133,27,夕雲
134,27,巻雲
135,27,長波
137,25,阿賀野
138,25,能代
139,25,矢矧
140,27,酒匂
141,54,五十鈴改二
144,28,夕立改二
145,31,時雨改二
146,32,木曾改二
147,30,Верный
154,12,香取
158,38,川内改二
159,40,神通改二
160,48,那珂改二
164,16,弥生
165,16,卯月
167,24,磯風
168,24,浦風
169,24,谷風
170,24,浜風
174,32,Z1
175,32,Z3
179,37,Z1 zwei
180,37,Z3 zwei
181,26,天津風
183,0,大淀
186,24,時津風
190,24,初風
195,25,綾波改二
198,33,霰改二
199,26,大潮改二
200,48,阿武隈改二
201,24,吹雪改
202,24,白雪改
203,24,初雪改
204,24,深雪改
205,24,叢雲改
206,24,磯波改
207,24,綾波改
208,24,敷波改
213,24,天龍改
214,24,龍田改
215,24,球磨改
216,24,多摩改
217,24,木曾改
218,24,長良改
219,48,五十鈴改
220,48,由良改
221,24,名取改
222,24,川内改
223,24,神通改
224,32,那珂改
225,27,陽炎改
226,27,不知火改
227,27,黒潮改
228,27,雪風改
229,27,島風改
230,24,朧改
231,24,曙改
232,24,漣改
233,24,潮改
234,24,暁改
235,24,響改
236,24,雷改
237,24,電改
238,24,初春改
239,24,子日改
240,24,若葉改
241,24,初霜改
242,24,白露改
243,24,時雨改
244,24,村雨改
245,24,夕立改
246,24,五月雨改
247,24,涼風改
248,24,朝潮改
249,24,大潮改
250,24,満潮改
251,24,荒潮改
252,24,霰改
253,24,霞改
254,18,睦月改
255,18,如月改
256,18,皐月改
257,18,文月改
258,18,長月改
259,18,菊月改
260,18,三日月改
261,18,望月改
289,48,鬼怒改
290,48,阿武隈改
293,24,夕張改
294,27,舞風改
300,27,初風改
301,27,秋雲改
302,29,夕雲改
303,29,巻雲改
304,29,長波改
305,26,阿賀野改
306,26,能代改
307,26,矢矧改
308,18,弥生改
309,21,卯月改
310,36,Z1改
311,36,Z3改
312,27,浜風改
313,28,谷風改
314,30,酒匂改
316,28,天津風改
317,29,浦風改
320,27,磯風改
321,0,大淀改
322,26,時津風改
323,24,春雨改
324,29,早霜改
325,29,清霜改
326,30,初春改二
327,24,朝雲改
328,27,山雲改
329,28,野分改
330,30,秋月改
343,22,香取改
344,35,朝霜改
345,29,高波改
346,30,照月改
347,40,Libeccio改
349,30,風雲改
350,27,海風改
351,24,江風改
352,12,速吸改
354,30,嵐改
355,28,萩風改
356,24,鹿島改
357,30,初月改
359,32,沖波改
362,27,親潮改
363,22,春風改
366,19,水無月改
368,24,浦波改
369,30,山風改
370,18,朝風改
371,20,松風改
373,28,藤波改
376,35,占守改
377,34,国後改
378,34,八丈改
379,36,石垣改
383,37,択捉改
384,36,松輪改
385,37,佐渡改
386,36,対馬改
387,21,旗風改
390,24,天霧改
391,24,狭霧改
394,55,Jervis改
395,40,Ташкент改
405,21,春雨
407,32,潮改二
409,27,早霜
410,27,清霜
411,8,扶桑改二
412,8,山城改二
413,21,朝雲
414,23,山雲
415,24,野分
418,30,皐月改二
419,28,初霜改二
420,28,叢雲改二
421,27,秋月
422,27,照月
423,26,初月
424,27,高波
425,35,朝霜
426,26,吹雪改二
434,28,睦月改二
435,27,如月改二
437,28,暁改二
443,30,Libeccio
452,28,沖波
453,27,風雲
454,28,嵐
455,26,萩風
456,23,親潮
457,19,山風
458,23,海風
459,21,江風
460,5,速吸
463,26,朝潮改二
464,28,霞改二
465,13,鹿島
468,45,朝潮改二丁
469,25,江風改二
470,28,霞改二乙
471,20,神風
472,17,朝風
473,18,春風
474,21,松風
475,17,旗風
476,24,神風改
477,24,天龍改二
478,50,龍田改二
479,20,天霧
480,20,狭霧
481,17,水無月
484,26,浜波
485,26,藤波
486,20,浦波
487,49,鬼怒改二
488,49,由良改二
489,26,満潮改二
490,26,荒潮改二
497,30,白露改二
498,29,村雨改二
500,10,神威改母
514,38,Sheffield
516,33,Ташкент
517,32,占守
518,31,国後
519,40,Jervis
520,40,Janus
524,35,択捉
525,35,松輪
527,26,岸波
528,25,早波
531,36,佐渡
532,25,涼月
533,24,冬月
537,28,涼月改
538,29,冬月改
540,35,対馬
542,30,夕雲改二
543,30,長波改二
547,43,多摩改二
548,30,文月改二
551,40,日振
552,40,大東
554,68,日向改二
556,45,浦風丁改
557,31,磯風乙改
558,32,浜風乙改
559,44,谷風丁改
561,48,Samuel B.Roberts
562,50,Johnston
563,30,巻雲改二
564,29,風雲改二
565,35,福江
566,30,陽炎改二
567,30,不知火改二
568,31,黒潮改二
569,29,沖波改二
570,34,平戸
574,36,Gotland
575,30,Maestrale
578,29,朝霜改二
579,38,Gotland改
580,40,Maestrale改
582,21,夏雲
583,21,峯雲
584,31,八丈
585,32,石垣
587,28,海風改二
588,30,山風改二
589,20,L.d.S.D.d.Abruzzi
590,20,G.Garibaldi
596,50,Fletcher
597,10,Atlanta
598,0,Honolulu
604,10,De Ruyter
609,15,De Ruyter改
611,40,御蔵
612,40,屋代
613,15,Perth
614,30,Grecale
615,0,Helena
616,40,御蔵改
617,39,屋代改
618,20,Perth改
619,38,Grecale改
620,0,Helena改
621,20,神州丸
622,49,夕張改二
623,27,夕張改二特
624,50,夕張改二丁
625,27,秋霜
626,30,神州丸改
627,30,敷波改二
628,52,Fletcher改 Mod.2
629,55,Fletcher Mk.II
630,36,Gotland andra
631,19,薄雲
632,21,有明
633,21,夕暮
637,30,第四号海防艦
638,30,第三〇号海防艦
641,30,松
642,29,竹
643,26,梅
644,27,桃
645,1,宗谷(灯台補給船)
646,72,加賀改二護
647,25,浦波改二
648,28,秋雲改二
649,30,高波改二
650,0,宗谷(南極観測船)
651,26,丹陽
652,40,球磨改二
653,29,Scirocco
656,28,雪風改二
657,48,球磨改二丁
658,39,Scirocco改
662,32,能代改二
663,31,矢矧改二
665,30,曙改二
666,28,磯波改二
667,28,山風改二丁
668,30,矢矧改二乙
670,30,親潮改二
671,24,巻波
674,22,玉波
675,24,涼波
678,40,日振改
679,40,大東改
680,28,浜波改
681,50,Samuel B.Roberts改
684,35,平戸改
685,37,福江改
686,30,岸波改
687,24,峯雲改
688,26,早波改
689,52,Johnston改
691,25,G.Garibaldi改
692,52,Fletcher改
693,25,L.d.S.D.d.Abruzzi改
695,28,秋霜改
696,12,Atlanta改
699,8,宗谷(特務艦)
700,22,薄雲改
701,32,第四号海防艦改
702,35,松改
703,16,有明改
705,40,Sheffield改
706,34,竹改
708,33,桃改
709,27,巻波改
710,26,涼波改
711,0,Honolulu改
712,30,第三〇号海防艦改
714,38,昭南改
716,33,梅改
717,32,山汐丸改
718,25,玉波改
720,26,早潮改
721,24,夏雲改
722,0,Brooklyn改
725,16,夕暮改
726,52,Heywood L.E.改
728,33,第二十二号海防艦改
729,24,白雲改
730,46,稲木改
734,0,Phoenix改
886,22,早潮
893,53,Janus改
895,38,昭南
896,0,Brooklyn
898,30,第二十二号海防艦
900,23,山汐丸
901,40,Javelin
903,27,天霧改二
904,38,能美
905,40,倉橋
906,53,Javelin改
908,25,天霧改二丁
909,39,能美改
910,40,倉橋改
915,30,早潮改二
916,16,大和改二重
920,51,Samuel B.Roberts Mk.II
921,42,鵜来
922,41,稲木
926,48,鵜来改
941,49,Heywood L.E.
943,22,熊野丸
948,30,熊野丸改
951,29,天津風改二
952,0,Phoenix
955,28,清霜改二
956,28,早霜改二
957,0,General Belgrano
959,25,深雪改二
960,27,清霜改二丁
961,39,時雨改三
962,32,Mogador
964,19,白雲
965,0,Gloire
967,38,Mogador改
968,32,初月改二
970,0,Gloire改
975,29,春雨改二
979,47,稲木改二
981,30,藤波改二
986,26,白雪改二
